…
## Load

``` r
library(tidyverse)
library(nycsets)
```

## What’s included

``` r
nyc_film_permits_df
#> # A tibble: 17,177 × 13
#>    event_id event_type      start_date_time     end_date_time      
#>       <int> <chr>           <dttm>              <dttm>             
#>  1   677665 Shooting Permit 2023-02-08 06:00:00 2023-02-08 22:00:00
#>  2   677666 Shooting Permit 2023-02-09 06:00:00 2023-02-09 22:00:00
#>  3   677670 Shooting Permit 2023-02-10 06:00:00 2023-02-10 22:00:00
#>  4   677675 Shooting Permit 2023-02-11 06:00:00 2023-02-11 22:00:00
#>  5   677679 Shooting Permit 2023-02-12 06:00:00 2023-02-12 22:00:00
#>  6   677681 Shooting Permit 2023-02-13 06:00:00 2023-02-13 22:00:00
#>  7   677682 Shooting Permit 2023-02-14 06:00:00 2023-02-14 22:00:00
#>  8   677683 Shooting Permit 2023-02-15 06:00:00 2023-02-15 22:00:00
#>  9   677684 Shooting Permit 2023-02-16 06:00:00 2023-02-16 22:00:00
#> 10   677685 Shooting Permit 2023-02-17 06:00:00 2023-02-17 22:00:00
#> # ℹ 17,167 more rows
#> # ℹ 9 more variables: entered_on <dttm>, parking_held <chr>, borough <chr>,
#> #   community_boards <chr>, police_precincts <chr>, category <chr>,
#> #   sub_category_name <chr>, country <chr>, zip_codes <chr>

nyc_film_permit_boards_df
#> # A tibble: 21,432 × 2
#>    event_id community_board
#>       <int>           <int>
#>  1   677665               4
#>  2   677666               4
#>  3   677670               4
#>  4   677675               4
#>  5   677679               4
#>  6   677681               4
#>  7   677682               4
#>  8   677683               4
#>  9   677684               4
#> 10   677685               4
#> # ℹ 21,422 more rows

nyc_film_permit_precincts_df
#> # A tibble: 22,030 × 2
#>    event_id police_precinct
#>       <int>           <int>
#>  1   677665              18
#>  2   677666              18
#>  3   677670              18
#>  4   677675              18
#>  5   677679              18
#>  6   677681              18
#>  7   677682              18
#>  8   677683              18
#>  9   677684              18
#> 10   677685              18
#> # ℹ 22,020 more rows

nyc_film_permit_zips_df
#> # A tibble: 26,067 × 2
#>    event_id zip_code
#>       <int> <chr>   
#>  1   677665 10019   
#>  2   677666 10019   
#>  3   677670 10019   
#>  4   677675 10019   
#>  5   677679 10019   
#>  6   677681 10019   
#>  7   677682 10019   
#>  8   677683 10019   
#>  9   677684 10019   
#> 10   677685 10019   
#> # ℹ 26,057 more rows

nyc_film_permit_parking_df
#> # A tibble: 58,172 × 6
#>    event_id segment_seq main_street    from_street to_street matched
#>       <int>       <int> <chr>          <chr>       <chr>     <lgl>  
#>  1   677665           1 WEST 58 STREET 10 AVENUE   11 AVENUE TRUE   
#>  2   677666           1 WEST 58 STREET 10 AVENUE   11 AVENUE TRUE   
#>  3   677670           1 WEST 58 STREET 10 AVENUE   11 AVENUE TRUE   
#>  4   677675           1 WEST 58 STREET 10 AVENUE   11 AVENUE TRUE   
#>  5   677679           1 WEST 58 STREET 10 AVENUE   11 AVENUE TRUE   
#>  6   677681           1 WEST 58 STREET 10 AVENUE   11 AVENUE TRUE   
#>  7   677682           1 WEST 58 STREET 10 AVENUE   11 AVENUE TRUE   
#>  8   677683           1 WEST 58 STREET 10 AVENUE   11 AVENUE TRUE   
#>  9   677684           1 WEST 58 STREET 10 AVENUE   11 AVENUE TRUE   
#> 10   677685           1 WEST 58 STREET 10 AVENUE   11 AVENUE TRUE   
#> # ℹ 58,162 more rows
```
…
